…
## Number of cells in each FOV

``` r
mibi_data %>% 
  count(fov_id, name = "num_cells") %>% 
  arrange(-num_cells)
```

    ## # A tibble: 67 x 2
    ##    fov_id num_cells
    ##     <dbl>     <int>
    ##  1     14      2634
    ##  2     44      2341
    ##  3     12      2019
    ##  4     32      1924
    ##  5     43      1891
    ##  6      1      1885
    ##  7     25      1759
    ##  8     26      1754
    ##  9     49      1752
    ## 10     38      1726
    ## # … with 57 more rows
…
daa_sjia_pap_vs_nonsjia_pap$da_results %>% 
  topTable(all = TRUE) %>% 
  as_tibble() %>% 
  arrange(p_adj) %>% 
  mutate(significance = if_else(p_adj < 0.05, "*", ""))
```

    ## # A tibble: 21 x 4
    ##    cluster_id         p_val p_adj significance
    ##    <fct>              <dbl> <dbl> <chr>       
    ##  1 CD209+_Mac        0.126  0.595 ""          
    ##  2 CD4+_Tcell        0.0965 0.595 ""          
    ##  3 CD57+_ImmuneOther 0.0777 0.595 ""          
    ##  4 M2_Mac            0.149  0.595 ""          
    ##  5 Mesenchymal       0.0569 0.595 ""          
    ##  6 Fibroblast        0.184  0.614 ""          
    ##  7 CD16+_ImmuneOther 0.247  0.618 ""          
    ##  8 Treg              0.217  0.618 ""          
    ##  9 Neutrophil        0.358  0.795 ""          
    ## 10 Bcell             0.494  0.824 ""          
    ## # … with 11 more rows
…
daa_control_vs_nonsjia_pap$da_results %>% 
  topTable(all = TRUE) %>% 
  as_tibble() %>% 
  arrange(p_adj) %>% 
  mutate(significance = if_else(p_adj < 0.05, "*", ""))
```

    ## # A tibble: 21 x 4
    ##    cluster_id           p_val   p_adj significance
    ##    <fct>                <dbl>   <dbl> <chr>       
    ##  1 iNOS+_Pneumocyte  0.000208 0.00416 "*"         
    ##  2 CD14+_Mono        0.00768  0.0487  "*"         
    ##  3 Endothelial       0.00974  0.0487  "*"         
    ##  4 iNOS+_Mac         0.00658  0.0487  "*"         
    ##  5 CD57+_ImmuneOther 0.0125   0.0502  ""          
    ##  6 CD16+_ImmuneOther 0.0346   0.115   ""          
    ##  7 Bcell             0.119    0.283   ""          
    ##  8 Fibroblast        0.127    0.283   ""          
    ##  9 Treg              0.122    0.283   ""          
    ## 10 CD11c+_mDC        0.312    0.567   ""          
    ## # … with 11 more rows
…
